week01-verilog/03-cdc/sim/transcript
# //  ModelSim SE-64 10.6d Feb 24 2018
# //
# //  Copyright 1991-2018 Mentor Graphics Corporation
# //  All Rights Reserved.
# //
# //  ModelSim SE-64 and its associated documentation contain trade
# //  secrets and commercial or financial information that are the property of
# //  Mentor Graphics Corporation and are privileged, confidential,
# //  and exempt from disclosure under the Freedom of Information Act,
# //  5 U.S.C. Section 552. Furthermore, this information
# //  is prohibited from disclosure under the Trade Secrets Act,
# //  18 U.S.C. Section 1905.
# //
# do sim_pulse_sync.do
# ** Warning: (vlib-34) Library already exists at "work".
# Model Technology ModelSim SE-64 vmap 10.6d Lib Mapping Utility 2018.02 Feb 24 2018
# vmap work work 
# Modifying modelsim.ini
# Model Technology ModelSim SE-64 vlog 10.6d Compiler 2018.02 Feb 24 2018
# Start time: 00:13:43 on Jun 10,2026
# vlog -reportprogress 300 ../pulse_sync.v 
# -- Compiling module pulse_sync
# 
# Top level modules:
# 	pulse_sync
# End time: 00:13:43 on Jun 10,2026, Elapsed time: 0:00:00
# Errors: 0, Warnings: 0
# Model Technology ModelSim SE-64 vlog 10.6d Compiler 2018.02 Feb 24 2018
# Start time: 00:13:43 on Jun 10,2026
# vlog -reportprogress 300 ../tb/tb_pulse_sync.v 
# -- Compiling module tb_pulse_sync
# 
# Top level modules:
# 	tb_pulse_sync
# End time: 00:13:43 on Jun 10,2026, Elapsed time: 0:00:00
# Errors: 0, Warnings: 0
# vsim -voptargs="+acc" work.tb_pulse_sync 
# Start time: 00:13:43 on Jun 10,2026
# ** Note: (vsim-8009) Loading existing optimized design _opt1
# Loading work.tb_pulse_sync(fast)
# Loading work.pulse_sync(fast)
# t=0  clkA=0  pulseA=0  toggle=0  sync_1=0  sync_2=0  sync_3=0  pulseB=0
# t=10000  clkA=1  pulseA=0  toggle=0  sync_1=0  sync_2=0  sync_3=0  pulseB=0
# t=20000  clkA=0  pulseA=0  toggle=0  sync_1=0  sync_2=0  sync_3=0  pulseB=0
# t=30000  clkA=1  pulseA=0  toggle=0  sync_1=0  sync_2=0  sync_3=0  pulseB=0
# t=40000  clkA=0  pulseA=0  toggle=0  sync_1=0  sync_2=0  sync_3=0  pulseB=0
# t=50000  clkA=1  pulseA=0  toggle=0  sync_1=0  sync_2=0  sync_3=0  pulseB=0
# t=60000  clkA=0  pulseA=0  toggle=0  sync_1=0  sync_2=0  sync_3=0  pulseB=0
# t=70000  clkA=1  pulseA=0  toggle=0  sync_1=0  sync_2=0  sync_3=0  pulseB=0
# t=80000  clkA=0  pulseA=0  toggle=0  sync_1=0  sync_2=0  sync_3=0  pulseB=0
# t=90000  clkA=1  pulseA=0  toggle=0  sync_1=0  sync_2=0  sync_3=0  pulseB=0
# t=100000  clkA=0  pulseA=0  toggle=0  sync_1=0  sync_2=0  sync_3=0  pulseB=0
# t=110000  clkA=1  pulseA=0  toggle=0  sync_1=0  sync_2=0  sync_3=0  pulseB=0
# t=120000  clkA=0  pulseA=0  toggle=0  sync_1=0  sync_2=0  sync_3=0  pulseB=0
# t=130000  clkA=1  pulseA=0  toggle=0  sync_1=0  sync_2=0  sync_3=0  pulseB=0
# t=140000  clkA=0  pulseA=0  toggle=0  sync_1=0  sync_2=0  sync_3=0  pulseB=0
# t=150000  clkA=1  pulseA=0  toggle=0  sync_1=0  sync_2=0  sync_3=0  pulseB=0
# t=160000  clkA=0  pulseA=0  toggle=0  sync_1=0  sync_2=0  sync_3=0  pulseB=0
# t=170000  clkA=1  pulseA=0  toggle=0  sync_1=0  sync_2=0  sync_3=0  pulseB=0
# t=180000  clkA=0  pulseA=0  toggle=0  sync_1=0  sync_2=0  sync_3=0  pulseB=0
# t=190000  clkA=1  pulseA=0  toggle=0  sync_1=0  sync_2=0  sync_3=0  pulseB=0
# t=200000  clkA=0  pulseA=0  toggle=0  sync_1=0  sync_2=0  sync_3=0  pulseB=0
# t=210000  clkA=1  pulseA=0  toggle=0  sync_1=0  sync_2=0  sync_3=0  pulseB=0
# t=220000  clkA=0  pulseA=0  toggle=0  sync_1=0  sync_2=0  sync_3=0  pulseB=0
# t=230000  clkA=1  pulseA=0  toggle=0  sync_1=0  sync_2=0  sync_3=0  pulseB=0
# t=240000  clkA=0  pulseA=0  toggle=0  sync_1=0  sync_2=0  sync_3=0  pulseB=0
# t=250000  clkA=1  pulseA=1  toggle=0  sync_1=0  sync_2=0  sync_3=0  pulseB=0
# t=260000  clkA=0  pulseA=1  toggle=0  sync_1=0  sync_2=0  sync_3=0  pulseB=0
# t=270000  clkA=1  pulseA=0  toggle=1  sync_1=0  sync_2=0  sync_3=0  pulseB=0
# t=280000  clkA=0  pulseA=0  toggle=1  sync_1=0  sync_2=0  sync_3=0  pulseB=0
# t=290000  clkA=1  pulseA=0  toggle=1  sync_1=0  sync_2=0  sync_3=0  pulseB=0
# t=300000  clkA=0  pulseA=0  toggle=1  sync_1=0  sync_2=0  sync_3=0  pulseB=0
# t=310000  clkA=1  pulseA=0  toggle=1  sync_1=0  sync_2=0  sync_3=0  pulseB=0
# t=320000  clkA=0  pulseA=0  toggle=1  sync_1=0  sync_2=0  sync_3=0  pulseB=0
# t=330000  clkA=1  pulseA=0  toggle=1  sync_1=0  sync_2=0  sync_3=0  pulseB=0
# t=340000  clkA=0  pulseA=0  toggle=1  sync_1=0  sync_2=0  sync_3=0  pulseB=0
# t=350000  clkA=1  pulseA=0  toggle=1  sync_1=1  sync_2=0  sync_3=0  pulseB=0
# t=360000  clkA=0  pulseA=0  toggle=1  sync_1=1  sync_2=0  sync_3=0  pulseB=0
# t=370000  clkA=1  pulseA=0  toggle=1  sync_1=1  sync_2=0  sync_3=0  pulseB=0
# t=380000  clkA=0  pulseA=0  toggle=1  sync_1=1  sync_2=0  sync_3=0  pulseB=0
# t=390000  clkA=1  pulseA=0  toggle=1  sync_1=1  sync_2=0  sync_3=0  pulseB=0
# t=400000  clkA=0  pulseA=0  toggle=1  sync_1=1  sync_2=0  sync_3=0  pulseB=0
# t=410000  clkA=1  pulseA=0  toggle=1  sync_1=1  sync_2=0  sync_3=0  pulseB=0
# t=420000  clkA=0  pulseA=0  toggle=1  sync_1=1  sync_2=0  sync_3=0  pulseB=0
# t=430000  clkA=1  pulseA=0  toggle=1  sync_1=1  sync_2=0  sync_3=0  pulseB=0
# t=440000  clkA=0  pulseA=0  toggle=1  sync_1=1  sync_2=0  sync_3=0  pulseB=0
# t=450000  clkA=1  pulseA=0  toggle=1  sync_1=1  sync_2=1  sync_3=0  pulseB=1
# t=460000  clkA=0  pulseA=0  toggle=1  sync_1=1  sync_2=1  sync_3=0  pulseB=1
# t=470000  clkA=1  pulseA=0  toggle=1  sync_1=1  sync_2=1  sync_3=0  pulseB=1
# t=480000  clkA=0  pulseA=0  toggle=1  sync_1=1  sync_2=1  sync_3=0  pulseB=1
# t=490000  clkA=1  pulseA=0  toggle=1  sync_1=1  sync_2=1  sync_3=0  pulseB=1
# t=500000  clkA=0  pulseA=0  toggle=1  sync_1=1  sync_2=1  sync_3=0  pulseB=1
# t=510000  clkA=1  pulseA=0  toggle=1  sync_1=1  sync_2=1  sync_3=0  pulseB=1
# t=520000  clkA=0  pulseA=0  toggle=1  sync_1=1  sync_2=1  sync_3=0  pulseB=1
# t=530000  clkA=1  pulseA=0  toggle=1  sync_1=1  sync_2=1  sync_3=0  pulseB=1
# t=540000  clkA=0  pulseA=0  toggle=1  sync_1=1  sync_2=1  sync_3=0  pulseB=1
# t=550000  clkA=1  pulseA=0  toggle=1  sync_1=1  sync_2=1  sync_3=1  pulseB=0
# t=560000  clkA=0  pulseA=0  toggle=1  sync_1=1  sync_2=1  sync_3=1  pulseB=0
# t=570000  clkA=1  pulseA=0  toggle=1  sync_1=1  sync_2=1  sync_3=1  pulseB=0
# t=580000  clkA=0  pulseA=0  toggle=1  sync_1=1  sync_2=1  sync_3=1  pulseB=0
# t=590000  clkA=1  pulseA=0  toggle=1  sync_1=1  sync_2=1  sync_3=1  pulseB=0
# t=600000  clkA=0  pulseA=0  toggle=1  sync_1=1  sync_2=1  sync_3=1  pulseB=0
# t=610000  clkA=1  pulseA=0  toggle=1  sync_1=1  sync_2=1  sync_3=1  pulseB=0
# t=620000  clkA=0  pulseA=0  toggle=1  sync_1=1  sync_2=1  sync_3=1  pulseB=0
# t=630000  clkA=1  pulseA=0  toggle=1  sync_1=1  sync_2=1  sync_3=1  pulseB=0
# t=640000  clkA=0  pulseA=0  toggle=1  sync_1=1  sync_2=1  sync_3=1  pulseB=0
# t=650000  clkA=1  pulseA=0  toggle=1  sync_1=1  sync_2=1  sync_3=1  pulseB=0
# t=660000  clkA=0  pulseA=0  toggle=1  sync_1=1  sync_2=1  sync_3=1  pulseB=0
# t=670000  clkA=1  pulseA=0  toggle=1  sync_1=1  sync_2=1  sync_3=1  pulseB=0
# t=680000  clkA=0  pulseA=0  toggle=1  sync_1=1  sync_2=1  sync_3=1  pulseB=0
# t=690000  clkA=1  pulseA=0  toggle=1  sync_1=1  sync_2=1  sync_3=1  pulseB=0
# t=700000  clkA=0  pulseA=0  toggle=1  sync_1=1  sync_2=1  sync_3=1  pulseB=0
# t=710000  clkA=1  pulseA=0  toggle=1  sync_1=1  sync_2=1  sync_3=1  pulseB=0
# t=720000  clkA=0  pulseA=0  toggle=1  sync_1=1  sync_2=1  sync_3=1  pulseB=0
# t=730000  clkA=1  pulseA=0  toggle=1  sync_1=1  sync_2=1  sync_3=1  pulseB=0
# t=740000  clkA=0  pulseA=0  toggle=1  sync_1=1  sync_2=1  sync_3=1  pulseB=0
# t=750000  clkA=1  pulseA=0  toggle=1  sync_1=1  sync_2=1  sync_3=1  pulseB=0
# t=760000  clkA=0  pulseA=0  toggle=1  sync_1=1  sync_2=1  sync_3=1  pulseB=0
# t=770000  clkA=1  pulseA=1  toggle=1  sync_1=1  sync_2=1  sync_3=1  pulseB=0
# t=780000  clkA=0  pulseA=1  toggle=1  sync_1=1  sync_2=1  sync_3=1  pulseB=0
# t=790000  clkA=1  pulseA=0  toggle=0  sync_1=1  sync_2=1  sync_3=1  pulseB=0
# t=800000  clkA=0  pulseA=0  toggle=0  sync_1=1  sync_2=1  sync_3=1  pulseB=0
# t=810000  clkA=1  pulseA=0  toggle=0  sync_1=1  sync_2=1  sync_3=1  pulseB=0
# t=820000  clkA=0  pulseA=0  toggle=0  sync_1=1  sync_2=1  sync_3=1  pulseB=0
# t=830000  clkA=1  pulseA=0  toggle=0  sync_1=1  sync_2=1  sync_3=1  pulseB=0
# t=840000  clkA=0  pulseA=0  toggle=0  sync_1=1  sync_2=1  sync_3=1  pulseB=0
# t=850000  clkA=1  pulseA=0  toggle=0  sync_1=0  sync_2=1  sync_3=1  pulseB=0
# t=860000  clkA=0  pulseA=0  toggle=0  sync_1=0  sync_2=1  sync_3=1  pulseB=0
# t=870000  clkA=1  pulseA=0  toggle=0  sync_1=0  sync_2=1  sync_3=1  pulseB=0
# t=880000  clkA=0  pulseA=0  toggle=0  sync_1=0  sync_2=1  sync_3=1  pulseB=0
# t=890000  clkA=1  pulseA=0  toggle=0  sync_1=0  sync_2=1  sync_3=1  pulseB=0
# t=900000  clkA=0  pulseA=0  toggle=0  sync_1=0  sync_2=1  sync_3=1  pulseB=0
# t=910000  clkA=1  pulseA=0  toggle=0  sync_1=0  sync_2=1  sync_3=1  pulseB=0
# t=920000  clkA=0  pulseA=0  toggle=0  sync_1=0  sync_2=1  sync_3=1  pulseB=0
# t=930000  clkA=1  pulseA=0  toggle=0  sync_1=0  sync_2=1  sync_3=1  pulseB=0
# t=940000  clkA=0  pulseA=0  toggle=0  sync_1=0  sync_2=1  sync_3=1  pulseB=0
# t=950000  clkA=1  pulseA=0  toggle=0  sync_1=0  sync_2=0  sync_3=1  pulseB=1
# t=960000  clkA=0  pulseA=0  toggle=0  sync_1=0  sync_2=0  sync_3=1  pulseB=1
# t=970000  clkA=1  pulseA=0  toggle=0  sync_1=0  sync_2=0  sync_3=1  pulseB=1
# t=980000  clkA=0  pulseA=0  toggle=0  sync_1=0  sync_2=0  sync_3=1  pulseB=1
# t=990000  clkA=1  pulseA=0  toggle=0  sync_1=0  sync_2=0  sync_3=1  pulseB=1
# t=1000000  clkA=0  pulseA=0  toggle=0  sync_1=0  sync_2=0  sync_3=1  pulseB=1
# t=1010000  clkA=1  pulseA=0  toggle=0  sync_1=0  sync_2=0  sync_3=1  pulseB=1
# t=1020000  clkA=0  pulseA=0  toggle=0  sync_1=0  sync_2=0  sync_3=1  pulseB=1
# t=1030000  clkA=1  pulseA=0  toggle=0  sync_1=0  sync_2=0  sync_3=1  pulseB=1
# t=1040000  clkA=0  pulseA=0  toggle=0  sync_1=0  sync_2=0  sync_3=1  pulseB=1
# t=1050000  clkA=1  pulseA=0  toggle=0  sync_1=0  sync_2=0  sync_3=0  pulseB=0
# t=1060000  clkA=0  pulseA=0  toggle=0  sync_1=0  sync_2=0  sync_3=0  pulseB=0
# t=1070000  clkA=1  pulseA=0  toggle=0  sync_1=0  sync_2=0  sync_3=0  pulseB=0
# t=1080000  clkA=0  pulseA=0  toggle=0  sync_1=0  sync_2=0  sync_3=0  pulseB=0
# t=1090000  clkA=1  pulseA=0  toggle=0  sync_1=0  sync_2=0  sync_3=0  pulseB=0
# t=1100000  clkA=0  pulseA=0  toggle=0  sync_1=0  sync_2=0  sync_3=0  pulseB=0
# t=1110000  clkA=1  pulseA=0  toggle=0  sync_1=0  sync_2=0  sync_3=0  pulseB=0
# t=1120000  clkA=0  pulseA=0  toggle=0  sync_1=0  sync_2=0  sync_3=0  pulseB=0
# t=1130000  clkA=1  pulseA=0  toggle=0  sync_1=0  sync_2=0  sync_3=0  pulseB=0
# t=1140000  clkA=0  pulseA=0  toggle=0  sync_1=0  sync_2=0  sync_3=0  pulseB=0
# t=1150000  clkA=1  pulseA=0  toggle=0  sync_1=0  sync_2=0  sync_3=0  pulseB=0
# t=1160000  clkA=0  pulseA=0  toggle=0  sync_1=0  sync_2=0  sync_3=0  pulseB=0
# t=1170000  clkA=1  pulseA=0  toggle=0  sync_1=0  sync_2=0  sync_3=0  pulseB=0
# t=1180000  clkA=0  pulseA=0  toggle=0  sync_1=0  sync_2=0  sync_3=0  pulseB=0
# t=1190000  clkA=1  pulseA=0  toggle=0  sync_1=0  sync_2=0  sync_3=0  pulseB=0
# t=1200000  clkA=0  pulseA=0  toggle=0  sync_1=0  sync_2=0  sync_3=0  pulseB=0
# t=1210000  clkA=1  pulseA=0  toggle=0  sync_1=0  sync_2=0  sync_3=0  pulseB=0
# t=1220000  clkA=0  pulseA=0  toggle=0  sync_1=0  sync_2=0  sync_3=0  pulseB=0
# t=1230000  clkA=1  pulseA=0  toggle=0  sync_1=0  sync_2=0  sync_3=0  pulseB=0
# t=1240000  clkA=0  pulseA=0  toggle=0  sync_1=0  sync_2=0  sync_3=0  pulseB=0
# t=1250000  clkA=1  pulseA=0  toggle=0  sync_1=0  sync_2=0  sync_3=0  pulseB=0
# t=1260000  clkA=0  pulseA=0  toggle=0  sync_1=0  sync_2=0  sync_3=0  pulseB=0
# t=1270000  clkA=1  pulseA=0  toggle=0  sync_1=0  sync_2=0  sync_3=0  pulseB=0
# t=1280000  clkA=0  pulseA=0  toggle=0  sync_1=0  sync_2=0  sync_3=0  pulseB=0
# t=1290000  clkA=1  pulseA=1  toggle=0  sync_1=0  sync_2=0  sync_3=0  pulseB=0
# t=1300000  clkA=0  pulseA=1  toggle=0  sync_1=0  sync_2=0  sync_3=0  pulseB=0
# t=1310000  clkA=1  pulseA=0  toggle=1  sync_1=0  sync_2=0  sync_3=0  pulseB=0
# t=1320000  clkA=0  pulseA=0  toggle=1  sync_1=0  sync_2=0  sync_3=0  pulseB=0
# t=1330000  clkA=1  pulseA=0  toggle=1  sync_1=0  sync_2=0  sync_3=0  pulseB=0
# t=1340000  clkA=0  pulseA=0  toggle=1  sync_1=0  sync_2=0  sync_3=0  pulseB=0
# t=1350000  clkA=1  pulseA=0  toggle=1  sync_1=1  sync_2=0  sync_3=0  pulseB=0
# t=1360000  clkA=0  pulseA=0  toggle=1  sync_1=1  sync_2=0  sync_3=0  pulseB=0
# t=1370000  clkA=1  pulseA=0  toggle=1  sync_1=1  sync_2=0  sync_3=0  pulseB=0
# t=1380000  clkA=0  pulseA=0  toggle=1  sync_1=1  sync_2=0  sync_3=0  pulseB=0
# t=1390000  clkA=1  pulseA=0  toggle=1  sync_1=1  sync_2=0  sync_3=0  pulseB=0
# t=1400000  clkA=0  pulseA=0  toggle=1  sync_1=1  sync_2=0  sync_3=0  pulseB=0
# t=1410000  clkA=1  pulseA=0  toggle=1  sync_1=1  sync_2=0  sync_3=0  pulseB=0
# t=1420000  clkA=0  pulseA=0  toggle=1  sync_1=1  sync_2=0  sync_3=0  pulseB=0
# t=1430000  clkA=1  pulseA=0  toggle=1  sync_1=1  sync_2=0  sync_3=0  pulseB=0
# t=1440000  clkA=0  pulseA=0  toggle=1  sync_1=1  sync_2=0  sync_3=0  pulseB=0
# t=1450000  clkA=1  pulseA=0  toggle=1  sync_1=1  sync_2=1  sync_3=0  pulseB=1
# t=1460000  clkA=0  pulseA=0  toggle=1  sync_1=1  sync_2=1  sync_3=0  pulseB=1
# t=1470000  clkA=1  pulseA=0  toggle=1  sync_1=1  sync_2=1  sync_3=0  pulseB=1
# t=1480000  clkA=0  pulseA=0  toggle=1  sync_1=1  sync_2=1  sync_3=0  pulseB=1
# t=1490000  clkA=1  pulseA=0  toggle=1  sync_1=1  sync_2=1  sync_3=0  pulseB=1
# t=1500000  clkA=0  pulseA=0  toggle=1  sync_1=1  sync_2=1  sync_3=0  pulseB=1
# t=1510000  clkA=1  pulseA=0  toggle=1  sync_1=1  sync_2=1  sync_3=0  pulseB=1
# t=1520000  clkA=0  pulseA=0  toggle=1  sync_1=1  sync_2=1  sync_3=0  pulseB=1
# t=1530000  clkA=1  pulseA=0  toggle=1  sync_1=1  sync_2=1  sync_3=0  pulseB=1
# t=1540000  clkA=0  pulseA=0  toggle=1  sync_1=1  sync_2=1  sync_3=0  pulseB=1
# t=1550000  clkA=1  pulseA=0  toggle=1  sync_1=1  sync_2=1  sync_3=1  pulseB=0
# t=1560000  clkA=0  pulseA=0  toggle=1  sync_1=1  sync_2=1  sync_3=1  pulseB=0
# t=1570000  clkA=1  pulseA=0  toggle=1  sync_1=1  sync_2=1  sync_3=1  pulseB=0
# t=1580000  clkA=0  pulseA=0  toggle=1  sync_1=1  sync_2=1  sync_3=1  pulseB=0
# t=1590000  clkA=1  pulseA=0  toggle=1  sync_1=1  sync_2=1  sync_3=1  pulseB=0
# t=1600000  clkA=0  pulseA=0  toggle=1  sync_1=1  sync_2=1  sync_3=1  pulseB=0
# t=1610000  clkA=1  pulseA=0  toggle=1  sync_1=1  sync_2=1  sync_3=1  pulseB=0
# t=1620000  clkA=0  pulseA=0  toggle=1  sync_1=1  sync_2=1  sync_3=1  pulseB=0
# t=1630000  clkA=1  pulseA=0  toggle=1  sync_1=1  sync_2=1  sync_3=1  pulseB=0
# t=1640000  clkA=0  pulseA=0  toggle=1  sync_1=1  sync_2=1  sync_3=1  pulseB=0
# t=1650000  clkA=1  pulseA=0  toggle=1  sync_1=1  sync_2=1  sync_3=1  pulseB=0
# t=1660000  clkA=0  pulseA=0  toggle=1  sync_1=1  sync_2=1  sync_3=1  pulseB=0
# t=1670000  clkA=1  pulseA=0  toggle=1  sync_1=1  sync_2=1  sync_3=1  pulseB=0
# t=1680000  clkA=0  pulseA=0  toggle=1  sync_1=1  sync_2=1  sync_3=1  pulseB=0
# t=1690000  clkA=1  pulseA=0  toggle=1  sync_1=1  sync_2=1  sync_3=1  pulseB=0
# t=1700000  clkA=0  pulseA=0  toggle=1  sync_1=1  sync_2=1  sync_3=1  pulseB=0
# t=1710000  clkA=1  pulseA=0  toggle=1  sync_1=1  sync_2=1  sync_3=1  pulseB=0
# t=1720000  clkA=0  pulseA=0  toggle=1  sync_1=1  sync_2=1  sync_3=1  pulseB=0
# t=1730000  clkA=1  pulseA=0  toggle=1  sync_1=1  sync_2=1  sync_3=1  pulseB=0
# t=1740000  clkA=0  pulseA=0  toggle=1  sync_1=1  sync_2=1  sync_3=1  pulseB=0
# t=1750000  clkA=1  pulseA=0  toggle=1  sync_1=1  sync_2=1  sync_3=1  pulseB=0
# t=1760000  clkA=0  pulseA=0  toggle=1  sync_1=1  sync_2=1  sync_3=1  pulseB=0
# t=1770000  clkA=1  pulseA=0  toggle=1  sync_1=1  sync_2=1  sync_3=1  pulseB=0
# t=1780000  clkA=0  pulseA=0  toggle=1  sync_1=1  sync_2=1  sync_3=1  pulseB=0
# t=1790000  clkA=1  pulseA=0  toggle=1  sync_1=1  sync_2=1  sync_3=1  pulseB=0
# t=1800000  clkA=0  pulseA=0  toggle=1  sync_1=1  sync_2=1  sync_3=1  pulseB=0
# ** Note: $finish    : ../tb/tb_pulse_sync.v(59)
#    Time: 1810 ns  Iteration: 0  Instance: /tb_pulse_sync
# 1
# Break in Module tb_pulse_sync at ../tb/tb_pulse_sync.v line 59
add wave -position insertpoint sim:/tb_pulse_sync/uut/*
run
# t=1810000  clkA=1  pulseA=0  toggle=1  sync_1=1  sync_2=1  sync_3=1  pulseB=0
# t=1820000  clkA=0  pulseA=0  toggle=1  sync_1=1  sync_2=1  sync_3=1  pulseB=0
# t=1830000  clkA=1  pulseA=0  toggle=1  sync_1=1  sync_2=1  sync_3=1  pulseB=0
# t=1840000  clkA=0  pulseA=0  toggle=1  sync_1=1  sync_2=1  sync_3=1  pulseB=0
# t=1850000  clkA=1  pulseA=0  toggle=1  sync_1=1  sync_2=1  sync_3=1  pulseB=0
# t=1860000  clkA=0  pulseA=0  toggle=1  sync_1=1  sync_2=1  sync_3=1  pulseB=0
# t=1870000  clkA=1  pulseA=0  toggle=1  sync_1=1  sync_2=1  sync_3=1  pulseB=0
# t=1880000  clkA=0  pulseA=0  toggle=1  sync_1=1  sync_2=1  sync_3=1  pulseB=0
# t=1890000  clkA=1  pulseA=0  toggle=1  sync_1=1  sync_2=1  sync_3=1  pulseB=0
# t=1900000  clkA=0  pulseA=0  toggle=1  sync_1=1  sync_2=1  sync_3=1  pulseB=0
# t=1910000  clkA=1  pulseA=0  toggle=1  sync_1=1  sync_2=1  sync_3=1  pulseB=0
# t=1920000  clkA=0  pulseA=0  toggle=1  sync_1=1  sync_2=1  sync_3=1  pulseB=0
# t=1930000  clkA=1  pulseA=0  toggle=1  sync_1=1  sync_2=1  sync_3=1  pulseB=0
# t=1940000  clkA=0  pulseA=0  toggle=1  sync_1=1  sync_2=1  sync_3=1  pulseB=0
# t=1950000  clkA=1  pulseA=0  toggle=1  sync_1=1  sync_2=1  sync_3=1  pulseB=0
# t=1960000  clkA=0  pulseA=0  toggle=1  sync_1=1  sync_2=1  sync_3=1  pulseB=0
# t=1970000  clkA=1  pulseA=0  toggle=1  sync_1=1  sync_2=1  sync_3=1  pulseB=0
# t=1980000  clkA=0  pulseA=0  toggle=1  sync_1=1  sync_2=1  sync_3=1  pulseB=0
# t=1990000  clkA=1  pulseA=0  toggle=1  sync_1=1  sync_2=1  sync_3=1  pulseB=0
# t=2000000  clkA=0  pulseA=0  toggle=1  sync_1=1  sync_2=1  sync_3=1  pulseB=0
# t=2010000  clkA=1  pulseA=0  toggle=1  sync_1=1  sync_2=1  sync_3=1  pulseB=0
# t=2020000  clkA=0  pulseA=0  toggle=1  sync_1=1  sync_2=1  sync_3=1  pulseB=0
# t=2030000  clkA=1  pulseA=0  toggle=1  sync_1=1  sync_2=1  sync_3=1  pulseB=0
# t=2040000  clkA=0  pulseA=0  toggle=1  sync_1=1  sync_2=1  sync_3=1  pulseB=0
# t=2050000  clkA=1  pulseA=0  toggle=1  sync_1=1  sync_2=1  sync_3=1  pulseB=0
# t=2060000  clkA=0  pulseA=0  toggle=1  sync_1=1  sync_2=1  sync_3=1  pulseB=0
# t=2070000  clkA=1  pulseA=0  toggle=1  sync_1=1  sync_2=1  sync_3=1  pulseB=0
# t=2080000  clkA=0  pulseA=0  toggle=1  sync_1=1  sync_2=1  sync_3=1  pulseB=0
# t=2090000  clkA=1  pulseA=0  toggle=1  sync_1=1  sync_2=1  sync_3=1  pulseB=0
# t=2100000  clkA=0  pulseA=0  toggle=1  sync_1=1  sync_2=1  sync_3=1  pulseB=0
# t=2110000  clkA=1  pulseA=0  toggle=1  sync_1=1  sync_2=1  sync_3=1  pulseB=0
# t=2120000  clkA=0  pulseA=0  toggle=1  sync_1=1  sync_2=1  sync_3=1  pulseB=0
# t=2130000  clkA=1  pulseA=0  toggle=1  sync_1=1  sync_2=1  sync_3=1  pulseB=0
# t=2140000  clkA=0  pulseA=0  toggle=1  sync_1=1  sync_2=1  sync_3=1  pulseB=0
# t=2150000  clkA=1  pulseA=0  toggle=1  sync_1=1  sync_2=1  sync_3=1  pulseB=0
# t=2160000  clkA=0  pulseA=0  toggle=1  sync_1=1  sync_2=1  sync_3=1  pulseB=0
# t=2170000  clkA=1  pulseA=0  toggle=1  sync_1=1  sync_2=1  sync_3=1  pulseB=0
# t=2180000  clkA=0  pulseA=0  toggle=1  sync_1=1  sync_2=1  sync_3=1  pulseB=0
# t=2190000  clkA=1  pulseA=0  toggle=1  sync_1=1  sync_2=1  sync_3=1  pulseB=0
# t=2200000  clkA=0  pulseA=0  toggle=1  sync_1=1  sync_2=1  sync_3=1  pulseB=0
# t=2210000  clkA=1  pulseA=0  toggle=1  sync_1=1  sync_2=1  sync_3=1  pulseB=0
# t=2220000  clkA=0  pulseA=0  toggle=1  sync_1=1  sync_2=1  sync_3=1  pulseB=0
# t=2230000  clkA=1  pulseA=0  toggle=1  sync_1=1  sync_2=1  sync_3=1  pulseB=0
# t=2240000  clkA=0  pulseA=0  toggle=1  sync_1=1  sync_2=1  sync_3=1  pulseB=0
# t=2250000  clkA=1  pulseA=0  toggle=1  sync_1=1  sync_2=1  sync_3=1  pulseB=0
# t=2260000  clkA=0  pulseA=0  toggle=1  sync_1=1  sync_2=1  sync_3=1  pulseB=0
# t=2270000  clkA=1  pulseA=0  toggle=1  sync_1=1  sync_2=1  sync_3=1  pulseB=0
# t=2280000  clkA=0  pulseA=0  toggle=1  sync_1=1  sync_2=1  sync_3=1  pulseB=0
# t=2290000  clkA=1  pulseA=0  toggle=1  sync_1=1  sync_2=1  sync_3=1  pulseB=0
# t=2300000  clkA=0  pulseA=0  toggle=1  sync_1=1  sync_2=1  sync_3=1  pulseB=0
# t=2310000  clkA=1  pulseA=0  toggle=1  sync_1=1  sync_2=1  sync_3=1  pulseB=0
# t=2320000  clkA=0  pulseA=0  toggle=1  sync_1=1  sync_2=1  sync_3=1  pulseB=0
# t=2330000  clkA=1  pulseA=0  toggle=1  sync_1=1  sync_2=1  sync_3=1  pulseB=0
# t=2340000  clkA=0  pulseA=0  toggle=1  sync_1=1  sync_2=1  sync_3=1  pulseB=0
# t=2350000  clkA=1  pulseA=0  toggle=1  sync_1=1  sync_2=1  sync_3=1  pulseB=0
# t=2360000  clkA=0  pulseA=0  toggle=1  sync_1=1  sync_2=1  sync_3=1  pulseB=0
# t=2370000  clkA=1  pulseA=0  toggle=1  sync_1=1  sync_2=1  sync_3=1  pulseB=0
# t=2380000  clkA=0  pulseA=0  toggle=1  sync_1=1  sync_2=1  sync_3=1  pulseB=0
# t=2390000  clkA=1  pulseA=0  toggle=1  sync_1=1  sync_2=1  sync_3=1  pulseB=0
# t=2400000  clkA=0  pulseA=0  toggle=1  sync_1=1  sync_2=1  sync_3=1  pulseB=0
# t=2410000  clkA=1  pulseA=0  toggle=1  sync_1=1  sync_2=1  sync_3=1  pulseB=0
# t=2420000  clkA=0  pulseA=0  toggle=1  sync_1=1  sync_2=1  sync_3=1  pulseB=0
# t=2430000  clkA=1  pulseA=0  toggle=1  sync_1=1  sync_2=1  sync_3=1  pulseB=0
# t=2440000  clkA=0  pulseA=0  toggle=1  sync_1=1  sync_2=1  sync_3=1  pulseB=0
# t=2450000  clkA=1  pulseA=0  toggle=1  sync_1=1  sync_2=1  sync_3=1  pulseB=0
# t=2460000  clkA=0  pulseA=0  toggle=1  sync_1=1  sync_2=1  sync_3=1  pulseB=0
# t=2470000  clkA=1  pulseA=0  toggle=1  sync_1=1  sync_2=1  sync_3=1  pulseB=0
# t=2480000  clkA=0  pulseA=0  toggle=1  sync_1=1  sync_2=1  sync_3=1  pulseB=0
# t=2490000  clkA=1  pulseA=0  toggle=1  sync_1=1  sync_2=1  sync_3=1  pulseB=0
# t=2500000  clkA=0  pulseA=0  toggle=1  sync_1=1  sync_2=1  sync_3=1  pulseB=0
# t=2510000  clkA=1  pulseA=0  toggle=1  sync_1=1  sync_2=1  sync_3=1  pulseB=0
# t=2520000  clkA=0  pulseA=0  toggle=1  sync_1=1  sync_2=1  sync_3=1  pulseB=0
# t=2530000  clkA=1  pulseA=0  toggle=1  sync_1=1  sync_2=1  sync_3=1  pulseB=0
# t=2540000  clkA=0  pulseA=0  toggle=1  sync_1=1  sync_2=1  sync_3=1  pulseB=0
# t=2550000  clkA=1  pulseA=0  toggle=1  sync_1=1  sync_2=1  sync_3=1  pulseB=0
# t=2560000  clkA=0  pulseA=0  toggle=1  sync_1=1  sync_2=1  sync_3=1  pulseB=0
# t=2570000  clkA=1  pulseA=0  toggle=1  sync_1=1  sync_2=1  sync_3=1  pulseB=0
# t=2580000  clkA=0  pulseA=0  toggle=1  sync_1=1  sync_2=1  sync_3=1  pulseB=0
# t=2590000  clkA=1  pulseA=0  toggle=1  sync_1=1  sync_2=1  sync_3=1  pulseB=0
# t=2600000  clkA=0  pulseA=0  toggle=1  sync_1=1  sync_2=1  sync_3=1  pulseB=0
